............
----------------------------------------------------------------------
Ran 12 tests in 0.001s

OK
Name               Stmts   Miss Branch BrPart  Cover   Missing
--------------------------------------------------------------
Diplomacy.py          33      2     20      2    92%   9->exit, 48-49
TestDiplomacy.py      55      1      2      1    96%   101
--------------------------------------------------------------
TOTAL                 88      3     22      3    95%
